{
	"name": "modem",
	"label": "External Modem*",
	"tabs": [
		{
			"label": "",
			"sections": [
				{
					"label": "Settings",
					"fields": [
						{
							"name": "enable",
							"label": "Enabled",
							"type": "enum",
							"format": "Disabled|Enabled"
						},
						{
							"name": "port",
							"label": "Serial Port",
							"type": "enum",
							"format": "=plist",
							"enable": "enable,0,!="
						}
					]
				}
			]
		}
	]
}
