{
	"label": "Tethered Racks",
	"fields": [
		{
			"name": "tcount",
			"label": "Rack Count",
			"type": "enum",
			"format": "{f}"
		},
		{
			"name": "tport",
			"label": "Connected To",
			"type": "enum",
			"format": "USB Host Port A|USB Host Port B",
			"enable": "tcount,0,!="
		}
	]
}
