{
	"atype": "s",
	"net": {
		"ident": {
			"name": "",
			"autocert": "1",
			"certdata": "",
			"certpriv": "",
			"certpass": "",
			"xname1": "",
			"xip1": "",
			"llmnr": "1",
			"mdns": "1",
			"identifier": "1",
			"flash": "1",
			"limit": "1"
		},
		"faces": {
			"eth0": {
				"mode": "1",
				"address": "192.168.1.20",
				"netmask": "255.255.255.0",
				"gateway": "192.168.1.1",
				"full": "1",
				"fast": "1",
				"sendmss": "1280",
				"recvmss": "1280"
			},
			"eth1": {
				"mode": "2",
				"address": "192.168.222.222",
				"netmask": "255.255.255.0",
				"gateway": "0.0.0.0",
				"full": "1",
				"fast": "1",
				"sendmss": "1280",
				"recvmss": "1280"
			}
		},
		"resolver": {
			"mode": "1",
			"dns1": "8.8.8.8",
			"dns2": "8.8.4.4",
			"suffix": "",
			"hosts": [
			]
		}
	},
	"services": {
		"time": {
			"ntp": {
				"mode": "1",
				"ntp1": "132.163.96.1",
				"ntp2": "129.6.15.28",
				"period": "240"
			},
			"gps": {
				"mode": "0",
				"period": "60"
			}
		}
	},
	"g3link": {
		"net": {
			"enable": "1",
			"port": "789",
			"timeout": "30"
		},
		"serial": {
			"enable": "1"
		},
		"usb": {
			"enable": "1"
		}
	}
}
