{
	"label": "Config",
	"icon": "fa-file-text",
	"sections": [
		{
			"label": "Configuration Files",
			"enable": "mode,0,!=",
			"message": "The interface is disabled.",
			"info": {
				"source": "face-c-{d}"
			}
		}
	]
}
