{
	"name": "dhcpRelay",
	"label": "DHCP Relay",
	"tabs": [
		{
			"label": "",
			"sections": [
				{
					"label": "Remote Servers",
					"table": {
						"name": "servers",
						"label": "DHCP Server",
						"fields": [
							{
								"name": "ip",
								"label": "IP Address",
								"type": "ip",
								"format": "addresss,0.0.0.0"
							}
						]
					}
				}
			]
		}
	]
}
