{
	"name": "s-config",
	"label": "System Configuration",
	"file": "system.json",
	"aliases": {
		"den": "Disabled|Enabled",
		"ethModeBase": "Disabled|Configured via DHCP|Manual Configuration|Bridges and VLANs Only|IP Transparency",
		"ethModeVLan": "Disabled|Configured via DHCP|Manual Configuration|Bridges Only",
		"ethModeWiFi": "Disabled|Configured via DHCP|Manual Configuration",
		"faces": "None",
		"locs": "None|Fixed"
	},
	"children": [
		{
			"name": "net",
			"label": "Network",
			"children": [
				{
					"name": "ident",
					"label": "Identity",
					"tabs": [
						{
							"label": "Naming",
							"sections": [
								{
									"label": "Naming",
									"fields": [
										{
											"name": "name",
											"label": "Local Name",
											"type": "string",
											"format": "hostname,Per MAC Address"
										},
										{
											"name": "autocert",
											"label": "Default Cert",
											"type": "enum",
											"format": "Specified Below|Automatic with Crimson Root|Automatic with Custom Root|<security.client.certs>"
										},
										{
											"name": "autoips",
											"label": "Automatic IPs",
											"type": "enum",
											"format": "Included|Excluded",
											"enable": "autocert,1,==,autocert,2,==,||"
										},
										{
											"name": "certdata",
											"label": "Cert File",
											"type": "file",
											"format": ".crt",
											"enable": "autocert,0,==,autocert,2,==,||",
											"mkcert": "x509|autocert,0,=="
										},
										{
											"name": "certpriv",
											"label": "Key File",
											"type": "file",
											"format": ".key",
											"enable": "autocert,0,==,autocert,2,==,||",
											"keypass": "certpass"
										},
										{
											"name": "certpass",
											"label": "Key Password",
											"type": "password",
											"format": "general,None",
											"enable": "autocert,0,==,autocert,2,==,||"
										},
										{
											"name": "xname1",
											"label": "External Name",
											"type": "string",
											"format": "hostname,None",
											"enable": "autocert,2,=="
										},
										{
											"name": "xip1",
											"label": "External IP",
											"type": "ip",
											"format": "optional,None",
											"enable": "autocert,2,=="
										}
									]
								}
							]
						},
						{
							"label": "Responders",
							"sections": [
								{
									"label": "Name Resolution",
									"fields": [
										{
											"name": "llmnr",
											"label": "LLMNR",
											"type": "enum",
											"format": "=den"
										},
										{
											"name": "mdns",
											"label": "mDNS",
											"type": "enum",
											"format": "=den"
										}
									]
								},
								{
									"label": "Unit Identification",
									"fields": [
										{
											"name": "identifier",
											"label": "Identifier",
											"type": "enum",
											"format": "=den"
										},
										{
											"name": "flash",
											"label": "Allow LED Flash",
											"type": "enum",
											"format": "=den",
											"enable": "identifier,0,!=",
											"default": "1"
										},
										{
											"name": "limit",
											"label": "Limit Responses",
											"type": "enum",
											"format": "=den",
											"enable": "identifier,0,!=",
											"default": "1"
										}
									]
								}
							]
						}
					]
				},
				{
					"name": "faces",
					"label": "Interfaces",
					"children": [
					],
					"tabs": [
						{
							"label": "Settings"
						},
						{
							"label": "Status",
							"icon": "fa-info-circle",
							"sections": [
								{
									"label": "Network Status",
									"info": {
										"source": "network-s"
									}
								}
							]
						},
						{
							"label": "Config",
							"icon": "fa-file-text",
							"sections": [
								{
									"label": "Configuration Files",
									"info": {
										"source": "network-c"
									}
								}
							]
						}
					]
				},
				{
					"name": "tunnels",
					"label": "Tunnels",
					"children": [
					]
				},
				{
					"name": "firewall",
					"label": "Firewall",
					"children": [
					],
					"tabs": [
						{
							"label": "Settings"
						},
						{
							"label": "Status",
							"icon": "fa-info-circle",
							"sections": [
								{
									"label": "Firewall Status",
									"info": {
										"source": "firewall-s"
									}
								}
							]
						},
						{
							"label": "Config",
							"icon": "fa-file-text",
							"sections": [
								{
									"label": "Configuration Files",
									"info": {
										"source": "firewall-c"
									}
								}
							]
						}
					]
				},
				{
					"name": "resolver",
					"label": "Resolver",
					"tabs": [
						{
							"label": "DNS",
							"sections": [
								{
									"label": "DNS Settings",
									"fields": [
										{
											"name": "mode",
											"label": "DNS Mode",
											"type": "enum",
											"format": "Disabled|Automatic|Manual"
										},
										{
											"name": "dns1",
											"label": "Server 1",
											"type": "ip",
											"format": "address,8.8.8.8",
											"enable": "mode,2,=="
										},
										{
											"name": "dns2",
											"label": "Server 2",
											"type": "ip",
											"format": "optional,Not Defined",
											"enable": "mode,2,=="
										},
										{
											"name": "suffix",
											"label": "Suffix",
											"type": "string",
											"format": "hostname,None",
											"enable": "mode,0,!="
										}
									]
								}
							]
						},
						{
							"label": "Hosts",
							"sections": [
								{
									"label": "Hosts Table",
									"table": {
										"name": "hosts",
										"label": "Host",
										"fields": [
											{
												"name": "name",
												"label": "Host Name",
												"type": "string",
												"format": "hostname,None"
											},
											{
												"name": "ip",
												"label": "IP Address",
												"type": "ip",
												"format": "address,0.0.0.0"
											},
											{
												"name": "scope",
												"label": "Scope",
												"type": "enum",
												"format": "Device|Global"
											}
										]
									}
								}
							]
						},
						{
							"label": "Status",
							"icon": "fa-info-circle",
							"sections": [
								{
									"label": "Resolver Status",
									"info": {
										"source": "dns-s"
									}
								}
							]
						},
						{
							"label": "Config",
							"icon": "fa-file-text",
							"sections": [
								{
									"label": "Configuration Files",
									"info": {
										"source": "dns-c"
									}
								}
							]
						}
					]
				},
				{
					"name": "routing",
					"label": "Routing",
					"tabs": [
						{
							"label": "Routes",
							"sections": [
								{
									"label": "Static Routes",
									"table": {
										"name": "routes",
										"label": "Route",
										"fields": [
											{
												"name": "ip",
												"label": "Destination",
												"type": "ip",
												"format": "address,0.0.0.0",
												"help": "Specify the IP address to be combined with the Mask to match the destination address of packets to be routed.",
												"width": 120
											},
											{
												"name": "mask",
												"label": "Mask",
												"type": "ip",
												"format": "rmask,255.255.255.255",
												"help": "Specify the netmask to be combined with the Desination to match the destination address of packets to be routed. Enter a value of 0.0.0.0 to create a default route.",
												"width": 120
											},
											{
												"name": "gateway",
												"label": "Gateway",
												"type": "ip",
												"format": "address,0.0.0.0",
												"help": "Specify the gateway to which the packets will be routed. If this address is reachable via an interface with a dynamic address, that interface should be select as the Send On setting.",
												"width": 120
											},
											{
												"name": "metric",
												"label": "Metric",
												"type": "number",
												"format": "0,0,2000,,Automatic",
												"help": "Specify the metric for this route. When multiple routes are defined for the same destination, the one with the longest netmask will be used first. If the netmasks match, the one with the lower metric will be used. Leave this setting at Automatic to allow Crimson to allocate the metric.",
												"width": 100,
												"hide": true
											},
											{
												"name": "face",
												"label": "Send On",
												"type": "enum",
												"format": "=afaces",
												"help": "Specify the interface on which the packets will be sent. If the gateway is reachable via an interace with a static address, this setting can be left at Automatic. Otherwise, an interface must be specified.",
												"width": 120
											}
										]
									}
								}
							]
						},
						{
							"label": "Outbound",
							"sections": [
								{
									"label": "Outbound Routes",
									"table": {
										"name": "outbound",
										"label": "Route",
										"fields": [
											{
												"name": "outbound",
												"label": "Outbound",
												"type": "enum",
												"format": "=nfaces",
												"help": "Specify the interface for which the route will match outbound packets.",
												"width": 120
											},
											{
												"name": "ip",
												"label": "Destination",
												"type": "ip",
												"format": "address,0.0.0.0",
												"help": "Specify the IP address to be combined with the Mask to match the destination address of packets to be routed.",
												"width": 120
											},
											{
												"name": "mask",
												"label": "Mask",
												"type": "ip",
												"format": "rmask,255.255.255.255",
												"help": "Specify the netmask to be combined with the Desination to match the destination address of packets to be routed. Enter a value of 0.0.0.0 to create a default route.",
												"width": 120
											},
											{
												"name": "gateway",
												"label": "Gateway",
												"type": "ip",
												"format": "address,0.0.0.0",
												"help": "Specify the gateway to which the packets will be routed. If this address is reachable via an interface with a dynamic address, that interface should be select as the Send On setting.",
												"width": 120
											},
											{
												"name": "metric",
												"label": "Metric",
												"type": "number",
												"format": "0,0,2000,,Automatic",
												"help": "Specify the metric for this route. When multiple routes are defined for the same destination, the one with the longest netmask will be used first. If the netmasks match, the one with the lower metric will be used. Leave this setting at Automatic to allow Crimson to allocate the metric.",
												"width": 100,
												"hide": true
											}
										]
									}
								}
							]
						},
						{
							"label": "Inbound",
							"sections": [
								{
									"label": "Inbound Routes",
									"table": {
										"name": "inbound",
										"label": "Route",
										"fields": [
											{
												"name": "inbound",
												"label": "Inbound",
												"type": "enum",
												"format": "=nfaces",
												"help": "Specify the interface for which the route will match inbound packets.",
												"width": 120
											},
											{
												"name": "ip",
												"label": "Destination",
												"type": "ip",
												"format": "address,0.0.0.0",
												"help": "Specify the IP address to be combined with the Mask to match the destination address of packets to be routed.",
												"width": 120
											},
											{
												"name": "mask",
												"label": "Mask",
												"type": "ip",
												"format": "rmask,255.255.255.255",
												"help": "Specify the netmask to be combined with the Desination to match the destination address of packets to be routed. Enter a value of 0.0.0.0 to create a default route.",
												"width": 120
											},
											{
												"name": "gateway",
												"label": "Gateway",
												"type": "ip",
												"format": "address,0.0.0.0",
												"help": "Specify the gateway to which the packets will be routed. If this address is reachable via an interface with a dynamic address, that interface should be select as the Send On setting.",
												"width": 120
											},
											{
												"name": "metric",
												"label": "Metric",
												"type": "number",
												"format": "0,0,2000,,Automatic",
												"help": "Specify the metric for this route. When multiple routes are defined for the same destination, the one with the longest netmask will be used first. If the netmasks match, the one with the lower metric will be used. Leave this setting at Automatic to allow Crimson to allocate the metric.",
												"width": 100,
												"hide": true
											},
											{
												"name": "face",
												"label": "Send On",
												"type": "enum",
												"format": "=afaces",
												"help": "Specify the interface on which the packets will be sent. If the gateway is reachable via an interace with a static address, this setting can be left at Automatic. Otherwise, an interface must be specified.",
												"width": 120
											}
										]
									}
								}
							]
						},
						{
							"label": "Options",
							"sections": [
								{
									"label": "Routing Mode",
									"fields": [
										{
											"name": "enable",
											"label": "IP Routing",
											"type": "enum",
											"format": "=den"
										}
									]
								}
							]
						},
						{
							"label": "Status",
							"icon": "fa-info-circle",
							"sections": [
								{
									"label": "Routing Status",
									"info": {
										"source": "routes-s"
									}
								}
							]
						},
						{
							"label": "Config",
							"icon": "fa-info-circle",
							"sections": [
								{
									"label": "Configuration Files",
									"info": {
										"source": "routes-c"
									}
								}
							]
						}
					]
				}
			]
		},
		{
			"name": "services",
			"label": "Services",
			"children": [
			]
		},
		{
			"name": "security",
			"label": "Security",
			"children": [
				{
					"name": "roots",
					"label": "Default CAs",
					"tabs": [
						{
							"label": "",
							"sections": [
								{
									"label": "Default Trusted CAs",
									"table": {
										"name": "certs",
										"label": "Certificate",
										"fields": [
											{
												"name": "data",
												"label": "Cert File",
												"type": "file",
												"format": ".crt",
												"width": 250
											}
										]
									}
								}
							]
						}
					]
				},
				{
					"name": "server",
					"label": "Trusted Certs",
					"tabs": [
						{
							"label": "",
							"sections": [
								{
									"label": "Trusted Certificates",
									"table": {
										"name": "certs",
										"label": "Certificate",
										"fields": [
											{
												"name": "key",
												"label": "Key",
												"type": "hidden",
												"hide": true
											},
											{
												"name": "name",
												"label": "Label",
												"type": "string",
												"format": "general,Untitled",
												"width": 100
											},
											{
												"name": "data",
												"label": "Cert File",
												"type": "file",
												"format": ".crt",
												"width": 250
											}
										]
									}
								}
							]
						}
					]
				},
				{
					"name": "client",
					"label": "Identity Certs",
					"tabs": [
						{
							"label": "",
							"sections": [
								{
									"label": "Identity Certificates",
									"table": {
										"name": "certs",
										"label": "Certificate",
										"fields": [
											{
												"name": "key",
												"label": "Key",
												"type": "hidden",
												"hide": true
											},
											{
												"name": "name",
												"label": "Label",
												"type": "string",
												"format": "general,Untitled",
												"width": 100
											},
											{
												"name": "cert",
												"label": "Cert File",
												"type": "file",
												"format": ".crt",
												"mkcert": "x509|1",
												"width": 250
											},
											{
												"name": "priv",
												"label": "Key File",
												"type": "file",
												"format": ".key",
												"keypass": "locpass",
												"width": 250,
												"hide": true
											},
											{
												"name": "pass",
												"label": "Key Password",
												"type": "password",
												"format": "general,None",
												"width": 100,
												"hide": true
											}
										]
									}
								}
							]
						}
					]
				}
			]
		},
		{
			"name": "g3link",
			"label": "Download",
			"children": [
				{
					"name": "net",
					"label": "Network",
					"tabs": [
						{
							"label": "",
							"sections": [
								{
									"label": "Settings",
									"fields": [
										{
											"name": "enable",
											"label": "Operation",
											"type": "enum",
											"format": "=den"
										},
										{
											"name": "port",
											"label": "Listen on Port",
											"type": "number",
											"format": "768,1,65535",
											"enable": "enable,1,=="
										},
										{
											"name": "timeout",
											"label": "Link Timeout",
											"type": "number",
											"format": "30,15,3600",
											"enable": "enable,1,=="
										}
									]
								},
								{
									"label": "IP Filter",
									"fields": [
										{
											"name": "reqaddr",
											"label": "Permitted Address",
											"type": "ip",
											"format": "address,0.0.0.0",
											"enable": "enable,0,!="
										},
										{
											"name": "reqmask",
											"label": "Permitted Mask",
											"type": "ip",
											"format": "rmask,0.0.0.0",
											"enable": "enable,0,!="
										}
									]
								}
							]
						}
					]
				},
				{
					"name": "serial",
					"label": "Serial",
					"tabs": [
						{
							"label": "",
							"sections": [
								{
									"label": "Settings",
									"fields": [
										{
											"name": "enable",
											"label": "Operation",
											"type": "enum",
											"format": "=den"
										}
									]
								}
							]
						}
					]
				}
			]
		}
	]
}
