{
	"label": "Additional IPs",
	"sections": [
		{
			"label": "Additional IPs",
			"enable": "mode,2,==",
			"message": "Additional IPs can only be used on an interface with a static IP.",
			"table": {
				"name": "aliases",
				"label": "Alias",
				"fields": [
					{
						"name": "address",
						"label": "IP Address",
						"type": "ip",
						"format": "address,0.0.0.0",
						"width": 150
					},
					{
						"name": "netmask",
						"label": "Network Mask",
						"type": "ip",
						"format": "mask,0.0.0.0",
						"width": 150
					}
				]
			}
		}
	]
}
