{
	"name": "forward",
	"label": "Port Forwarding",
	"tabs": [
		{
			"label": "",
			"sections": [
				{
					"label": "Rules",
					"table": {
						"name": "list",
						"label": "Rule",
						"fields": [
							{
								"name": "name",
								"label": "Label",
								"type": "string",
								"format": "general,Untitled",
								"width": 100
							},
							{
								"name": "face",
								"label": "Interface",
								"type": "enum",
								"format": "=xfaces",
								"width": 100
							},
							{
								"name": "iip",
								"label": "Inbound IP",
								"type": "ip",
								"format": "optional,Allow Any",
								"width": 100,
								"hide": true
							},
							{
								"name": "prot",
								"label": "Protocol",
								"type": "enum",
								"format": "TCP|UDP|TCP+UDP",
								"width": 100
							},
							{
								"name": "iport",
								"label": "Port",
								"type": "number",
								"format": "0,1,65535",
								"width": 100
							},
							{
								"name": "dip",
								"label": "Target IP",
								"type": "ip",
								"format": "address,0.0.0.0",
								"width": 100
							},
							{
								"name": "dport",
								"label": "Target Port",
								"type": "number",
								"format": "0,0,65535,,Unchanged",
								"width": 100
							},
							{
								"name": "wlist",
								"label": "White List",
								"type": "enum",
								"format": "Allow All|<net.firewall.lists.wlist>",
								"hide": true
							}
						]
					}
				}
			]
		}
	]
}
