rlc,comms,0
rlc,tags,0
rlc,user_interface,0
core ii,flow_chart,0
rlc,datalog,0
network i,web_server,0
network ii,user_permissions,0
common,new_document,0
core ii,colour,0
imaging,shapes,0
multimedia,image,0
rlc,symbol_library,0
rlc,system,0
rlc,modules,0
mobile,applications_2,0
