rlc,align_centre,0
word processing,align_justify,0
rlc,align_left,0
rlc,align_right,0
word processing,spell_check,0
imaging,text,0
rlc,line_spacing_1,0
rlc,line_spacing_2,0
core i,edit,0
rlc,align_top,0
rlc,align_upper,0
rlc,align_middle,0
rlc,align_lower,0
rlc,align_bottom,0
rlc,add_data,0
rlc,add_text,0
rlc,display_data,0
rlc,data_entry,0
word processing,bold_blue_a,0
word processing,underline_blue,0
rlc,textbigger,0
rlc,textsmaller,0
rlc,dechorzorg,0
rlc,inchorzorg,0
rlc,decvertorg,0
rlc,incvertorg,0
