<Module><CommandArray>
4011,AI_AnaIn,AI_Span,AI_Offset,AI_SynSamp,AI_ReadSyn,DAE_DigSts,DAE_DigOut,DAE_AlmEnM,DAE_AlmEnL,DAE_AlmDis,DAE_AlmHi,DAE_AlmLo,DAE_AlmLClr,DAE_EvtCtr,DAE_ClrEvtC,
4011D,AI_AnaIn,AI_Span,AI_Offset,AI_SynSamp,AI_ReadSyn,DAE_DigSts,DAE_DigOut,DAE_AlmEnM,DAE_AlmEnL,DAE_AlmDis,DAE_AlmHi,DAE_AlmLo,DAE_AlmLClr,DAE_EvtCtr,DAE_ClrEvtC,
4012,AI_AnaIn,AI_Span,AI_Offset,AI_SynSamp,AI_ReadSyn,DAE_DigSts,DAE_DigOut,DAE_AlmEnM,DAE_AlmEnL,DAE_AlmDis,DAE_AlmHi,DAE_AlmLo,DAE_AlmLClr,DAE_EvtCtr,DAE_ClrEvtC,
4013,AI_AnaIn,AI_Span,AI_Offset,AI_SynSamp,AI_ReadSyn,
4015,AI_AnaIn,AI_ChnInp,AI_ChnSt,AI_SynSamp,AI_ReadSyn,
4016,AI_AnaIn,AI_Span,AI_Offset,AI_SynSamp,AI_ReadSyn,DAE_DigSts,DAE_DigOut,DAE_AlmEnM,DAE_AlmEnL,DAE_AlmDis,DAE_AlmHi,DAE_AlmLo,DAE_AlmLClr,EVO_EVOut,EVO_SVOCfg,EVO_TrimCal,EVO_ZeroCal,EVO_SpanCal,
4017,AI_AnaIn,AI_ChnInp,AI_ChnSt,AI_Span,AI_Offset,
4017+,AI_AnaIn,AI_ChnInp,AI_ChnSt,AI_Span,AI_Offset,
4018,AI_AnaIn,AI_ChnInp,AI_ChnSt,AI_Span,AI_Offset,
4018+,AI_AnaIn,AI_ChnInp,AI_ChnSt,
4018M,AI_AnaIn,AI_ChnInp,AI_ChnSt,AI_Span,AI_Offset,
4019+,AI_AnaIn,AI_ChnInp,AI_ChnSt,
4021,AO_AnaOut,AO_SOCfg,AO_CalTrim,AO_Cal4mA,AO_Cal20mA,AO_LastVal,AO_CurVal,AO_RstSts,
4050,DIO_DioIn,DIO_DioOut,DIO_SynSamp,DIO_ReadSyn,DIO_RstSts,
4051,DIO_DioIn,DIO_SynSamp,DIO_ReadSyn,DIO_RstSts,
4052,DIO_DioIn,DIO_SynSamp,DIO_ReadSyn,DIO_RstSts,
4053,DIO_DioIn,DIO_SynSamp,DIO_ReadSyn,DIO_RstSts,
4055,DIO_DioIn,DIO_DioOut,DIO_SynSamp,DIO_ReadSyn,DIO_RstSts,DIO_FrcSafe,DIO_SafeV,DIO_SafeF,
4056S,DIO_DioIn,DIO_Dio12Out,DIO_RstSts,DIO_FrcSafe,DIO_SafeV,DIO_SafeF,
4056SO,DIO_DioIn,DIO_Dio12Out,DIO_RstSts,DIO_FrcSafe,DIO_SafeV,DIO_SafeF,DIO_ClrOcf,
4060,DIO_DioIn,DIO_DioOut,DIO_SynSamp,DIO_ReadSyn,DIO_RstSts,DIO_FrcSafe,DIO_SafeV,DIO_SafeF,
4068,DIO_DioIn,DIO_DioOut,DIO_SynSamp,DIO_ReadSyn,DIO_RstSts,DIO_FrcSafe,DIO_SafeV,DIO_SafeF,
4069,DIO_DioIn,DIO_DioOut,DIO_RstSts,DIO_FrcSafe,DIO_SafeV,
4080,CTR_InpSig,CTR_Value0,CTR_Value1,CTR_Gate,CTR_MaxVal0,CTR_MaxVal1,CTR_StSpCtr0,CTR_StSpCtr1,CTR_Clear0,CTR_Clear1,CTR_OverF0,CTR_OverF1,DFT_DigFltr,DFT_MinInpH,DFT_MinInpL,DFT_TrigH,DFT_TrigL,DOA_Init0,DOA_Init1,DOA_EnAlm0,DOA_EnAlm1,DOA_DisAlm0,DOA_DisAlm1,DOA_AlmLim0,DOA_AlmLim1,DOA_SetDO,DOA_DoaSts,
4080D,CTR_InpSig,CTR_Value0,CTR_Value1,CTR_Gate,CTR_MaxVal0,CTR_MaxVal1,CTR_StSpCtr0,CTR_StSpCtr1,CTR_Clear0,CTR_Clear1,CTR_OverFCTR_OverF0,CTR_OverF1,DFT_DigFltr,DFT_MinInpH,DFT_MinInpL,DFT_TrigH,DFT_TrigL,DAE_AlmEnM,DAE_AlmEnL,DAE_AlmDis,DAE_AlmLClr,DAE_AlmHi,DAE_AlmLo,DAE_DigOut,DAE_DigSts,
<GroupDefs><Prefix><Name>
CMD,Common Commands
AI,Analog Input
DAE,Digital I/O & Alarm - Events
EVO,Excitation Voltage Output
AO,Analog Output
DIO,Digital I/O & Relay Output
CTR,Counter/Frequency
DFT,Digital Filter & Threshold
DOA,Digital Output & Alarm
<Group><Prefix><Name><ReadSyntax><WriteSyntax><Type><Form><Misc>
CMD,Config,Configuration,$AA2,%AANNTTCCFF,LONG,HEX,0,
CMD,Ver,Firmware Version,$AAF,,LONG,TEXT,0,
CMD,Name,Module Name,$AAM,,LONG,TEXT,0,
AI,AnaIn,Analog Data In,#AA,,REAL|LONG,HEX,1,
AI,ChnInp,Channel N Input Value,#AAN,,REAL|LONG,HEX,1,
AI,ChnSt,Channel Status,$AA6,,BYTE,HEX,0,
AI,Span,Span Calibration,,$AA0,BIT,CMD,0,					
AI,Offset,Offset Calibration,,$AA1,BIT,CMD,0,
AI,SynSamp,Synchronized Sampling,,#**,BIT,CMD,0,
AI,ReadSyn,Read Synchronized Data,$AA4,,REAL|LONG,HEX,1,
DAE,DigSts,Digital IO and Alarm Status,@AADI,,LONG,HEX,0,
DAE,DigOut,Digital Output Command,,@AADO,BYTE,INT,0,
DAE,AlmEnM,Momentary Alarm Enable,,@AAEAM,BIT,CMD,0,
DAE,AlmEnL,Latching Alarm Enable,,@AAEAL,BIT,CMD,0,
DAE,AlmDis,Alarm Disable,,@AADA,BIT,CMD,0,
DAE,AlmHi,High Alarm,@AARH,@AAHI,REAL|LONG,HEX,1,
DAE,AlmLo,Low Alarm,@AARL,@AALO,REAL|LONG,HEX,1,
DAE,AlmLClr,Clear Latch Alarm,,@AACA,BIT,CMD,0,
DAE,EvtCtr,Event Counter,@AARE,,WORD,5,0,
DAE,ClrEvtC,Clear Event Counter,,@AACE,BIT,CMD,0,
EVO,EVOut,Excitation Voltage Output Value,$AA6,$AA7,REAL|LONG,HEX,1,
EVO,SVOCfg,Start-up Voltage Output Configuration,,$AAS,BIT,CMD,0,
EVO,TrimCal,Trim Calibration,,$AAE,BYTE,HEX,0,
EVO,ZeroCal,Zero Calibration,,$AAA,BIT,CMD,0,
EVO,SpanCal,Span Calibration,,$AAB,BIT,CMD,0,
AO,AnaOut,Direct Analog Data Out,,#AA,REAL|LONG,HEX,1,
AO,SOCfg,Start-up Output Configuration,,$AA4,BIT,CMD,0,
AO,CalTrim,Trim Calibration,,$AA3,BYTE,HEX,0,
AO,Cal4mA,4 mA Calibration,,$AA0,BIT,CMD,0,
AO,Cal20mA,20 mA Calibration,,$AA1,BIT,CMD,0,
AO,LastVal,Last Value,$AA6,,REAL|LONG,HEX,1,
AO,CurVal,Current Value,$AA8,,REAL|LONG,HEX,1,
AO,RstSts,Reset Status,$AA5,,BIT,,0,
DIO,DioIn,Digital Data In,$AA6,,LONG,HEX,2,
DIO,DioOut,Digital Data Out,,#AA,WORD,HEX,0,
DIO,Dio12Out,Digital Data (12) Out,,#AA,LONG,HEX,4,
DIO,RstSts,Reset Status,$AA5,,BIT,,0,
DIO,SynSamp,Synchronized Sampling,,#**,BIT,CMD,0,
DIO,ReadSyn,Read Synchronized Data,$AA4,,LONG,HEX,0,
DIO,FrcSafe,Force DO Channels to Safety Status,,$AAX0,LONG,HEX,0,
DIO,SafeV,Read Safety Value,$AAX1,,LONG,HEX,2,
DIO,SafeF,Read Safety Flag,$AAX2,,BYTE,HEX,2,
DIO,ClrOcf,Clear Over Current Status Flag,,$AAE0,BIT,CMD,0,
CTR,InpSig,Input Signal Mode,$AAB,$AAB,BIT,,0,
CTR,Value0,Read Counter 0 Value,#AA0,,LONG,HEX,0,
CTR,Value1,Read Counter 1 Value,#AA1,,LONG,HEX,0,
CTR,Gate,Gate Mode,$AAA,$AAA,BYTE,1,0,
CTR,MaxVal0,Maximum Counter 0 Value,$AA30,$AA30,LONG,HEX,0,
CTR,MaxVal1,Maximum Counter 1 Value,$AA31,$AA31,LONG,HEX,0,
CTR,StSpCtr0,Start/Stop Counter 0,$AA50,$AA50,BIT,,0,
CTR,StSpCtr1,Start/Stop Counter 1,$AA51,$AA51,BIT,,0,
CTR,Clear0,Clear Counter 0,,$AA60,BIT,CMD,0,
CTR,Clear1,Clear Counter 1,,$AA61,BIT,CMD,0,
CTR,OverF0,Overflow Flag,$AA70,,BIT,,0,
CTR,OverF1,Overflow Flag,$AA71,,BIT,,0,
DFT,DigFltr,Digital Filter,$AA4,$AA4,BIT,,0,
DFT,MinInpH,Minimum Input Signal At High Level,$AA0H,$AA0H,WORD,5,0,
DFT,MinInpL,Set Minimum Input Signal At Low Level,$AA0L,$AA0L,WORD,5,0,
DFT,TrigH,Set High Trigger Level,$AA1H,$AA1H,BYTE,2,0,
DFT,TrigL,Set Low Trigger Level,$AA1L,$AA1L,BYTE,2,0,
DOA,Init0,Initial Counter 0 Value,@AAG0,@AAP0,LONG,HEX,0,
DOA,Init1,Initial Counter 1 Value,@AAG1,@AAP1,LONG,HEX,0,
DOA,EnAlm0,Enable Counter 0 Alarm,,@AAEA0,BIT,,0,
DOA,EnAlm1,Enable Counter 1 Alarm,,@AAEA1,BIT,,0,
DOA,DisAlm0,Disable Counter 0 Alarm,,@AADA0,BIT,,0,
DOA,DisAlm1,Disable Counter 1 Alarm,,@AADA1,BIT,,0,
DOA,AlmLim0,Counter 0 Alarm Limit,@AARP,@AAPA,LONG,HEX,0,
DOA,AlmLim1,Counter 1 Alarm Limit,@AARA,@AASA,LONG,HEX,0,
DOA,SetDO,Set Digital Output Values,,@AADO,BYTE,2,0,
DOA,DoaSts,Read Digital Output & Alarm Status,@AADI,,LONG,HEX,0,
