Tag,Name,Local,Class,Format
Type1,Output 1 Type,Output Type,CUIDropIndex,0|Disabled|1|0-5V|2|+/-5V|4|0-10V|5|+/-10V|7|0-20mA|9|4-20mA
Type2,Output 2 Type,Output Type,CUIDropIndex,0|Disabled|1|0-5V|2|+/-5V|4|0-10V|5|+/-10V|7|0-20mA|9|4-20mA
Type3,Output 3 Type,Output Type,CUIDropIndex,0|Disabled|1|0-5V|2|+/-5V|4|0-10V|5|+/-10V|7|0-20mA|9|4-20mA
Type4,Output 4 Type,Output Type,CUIDropIndex,0|Disabled|1|0-5V|2|+/-5V|4|0-10V|5|+/-10V|7|0-20mA|9|4-20mA
Type5,Output 5 Type,Output Type,CUIDropIndex,0|Disabled|1|0-5V|2|+/-5V|4|0-10V|5|+/-10V|7|0-20mA|9|4-20mA
Type6,Output 6 Type,Output Type,CUIDropIndex,0|Disabled|1|0-5V|2|+/-5V|4|0-10V|5|+/-10V|7|0-20mA|9|4-20mA
Type7,Output 7 Type,Output Type,CUIDropIndex,0|Disabled|1|0-5V|2|+/-5V|4|0-10V|5|+/-10V|7|0-20mA|9|4-20mA
Type8,Output 8 Type,Output Type,CUIDropIndex,0|Disabled|1|0-5V|2|+/-5V|4|0-10V|5|+/-10V|7|0-20mA|9|4-20mA
DP1,Decimal Places,,CUIEditInteger,1|0||0|4
DP2,Decimal Places,,CUIEditInteger,1|0||0|4
DP3,Decimal Places,,CUIEditInteger,1|0||0|4
DP4,Decimal Places,,CUIEditInteger,1|0||0|4
DP5,Decimal Places,,CUIEditInteger,1|0||0|4
DP6,Decimal Places,,CUIEditInteger,1|0||0|4
DP7,Decimal Places,,CUIEditInteger,1|0||0|4
DP8,Decimal Places,,CUIEditInteger,1|0||0|4
DataLo1,Data Low,,CUIAO8Dynamic,A1
DataLo2,Data Low,,CUIAO8Dynamic,A2
DataLo3,Data Low,,CUIAO8Dynamic,A3
DataLo4,Data Low,,CUIAO8Dynamic,A4
DataLo5,Data Low,,CUIAO8Dynamic,A5
DataLo6,Data Low,,CUIAO8Dynamic,A6
DataLo7,Data Low,,CUIAO8Dynamic,A7
DataLo8,Data Low,,CUIAO8Dynamic,A8
DataHi1,Data High,,CUIAO8Dynamic,B1
DataHi2,Data High,,CUIAO8Dynamic,B2
DataHi3,Data High,,CUIAO8Dynamic,B3
DataHi4,Data High,,CUIAO8Dynamic,B4
DataHi5,Data High,,CUIAO8Dynamic,B5
DataHi6,Data High,,CUIAO8Dynamic,B6
DataHi7,Data High,,CUIAO8Dynamic,B7
DataHi8,Data High,,CUIAO8Dynamic,B8
OutputLo1,Output Low,,CUIAO8Dynamic,C1
OutputLo2,Output Low,,CUIAO8Dynamic,C2
OutputLo3,Output Low,,CUIAO8Dynamic,C3
OutputLo4,Output Low,,CUIAO8Dynamic,C4
OutputLo5,Output Low,,CUIAO8Dynamic,C5
OutputLo6,Output Low,,CUIAO8Dynamic,C6
OutputLo7,Output Low,,CUIAO8Dynamic,C7
OutputLo8,Output Low,,CUIAO8Dynamic,C8
OutputHi1,Output High,,CUIAO8Dynamic,D1
OutputHi2,Output High,,CUIAO8Dynamic,D2
OutputHi3,Output High,,CUIAO8Dynamic,D3
OutputHi4,Output High,,CUIAO8Dynamic,D4
OutputHi5,Output High,,CUIAO8Dynamic,D5
OutputHi6,Output High,,CUIAO8Dynamic,D6
OutputHi7,Output High,,CUIAO8Dynamic,D7
OutputHi8,Output High,,CUIAO8Dynamic,D8
InitData,Include in Download,,CUIDropDown,No|Yes
DataInit1,Data 1,,CUIAO8Dynamic,E1
DataInit2,Data 2,,CUIAO8Dynamic,E2
DataInit3,Data 3,,CUIAO8Dynamic,E3
DataInit4,Data 4,,CUIAO8Dynamic,E4
DataInit5,Data 5,,CUIAO8Dynamic,E5
DataInit6,Data 6,,CUIAO8Dynamic,E6
DataInit7,Data 7,,CUIAO8Dynamic,E7
DataInit8,Data 8,,CUIAO8Dynamic,E8
