Tag,Name,Local,Class,Format
InputType1,Input Type,,CUIDropDown,|Process 0-10V|Process 0-50mV|Process 0-20mA|Process 4-20mA|RTD|Thermocouple
InputType2,Input Type,,CUIDropDown,|Process 0-10V|Process 0-50mV|Process 0-20mA|Process 4-20mA|RTD|Thermocouple
InputType3,Input Type,,CUIDropDown,|Process 0-10V|Process 0-50mV|Process 0-20mA|Process 4-20mA|RTD|Thermocouple
InputType4,Input Type,,CUIDropDown,|Process 0-10V|Process 0-50mV|Process 0-20mA|Process 4-20mA|RTD|Thermocouple
InputTC1,TC / RTD,,CUIDropDown,|Type-B|Type-C|Type-E|Type-J|Type-K|Type-N|Type-R|Type-S|Type-T|RTD-385|RTD-392|RTD-672
InputTC2,TC / RTD,,CUIDropDown,|Type-B|Type-C|Type-E|Type-J|Type-K|Type-N|Type-R|Type-S|Type-T|RTD-385|RTD-392|RTD-672
InputTC3,TC / RTD,,CUIDropDown,|Type-B|Type-C|Type-E|Type-J|Type-K|Type-N|Type-R|Type-S|Type-T|RTD-385|RTD-392|RTD-672
InputTC4,TC / RTD,,CUIDropDown,|Type-B|Type-C|Type-E|Type-J|Type-K|Type-N|Type-R|Type-S|Type-T|RTD-385|RTD-392|RTD-672
InputFilter1,Input Filter,,CUIEditInteger,3|1|secs|0|600
InputFilter2,Input Filter,,CUIEditInteger,3|1|secs|0|600
InputFilter3,Input Filter,,CUIEditInteger,3|1|secs|0|600
InputFilter4,Input Filter,,CUIEditInteger,3|1|secs|0|600
InputOffset1,Offset,,CUIInputProcess,O1
InputOffset2,Offset,,CUIInputProcess,O2
InputOffset3,Offset,,CUIInputProcess,O3
InputOffset4,Offset,,CUIInputProcess,O4
InputSlope1,Slope,,CUIEditInteger,3|3||1|10000
InputSlope2,Slope,,CUIEditInteger,3|3||1|10000
InputSlope3,Slope,,CUIEditInteger,3|3||1|10000
InputSlope4,Slope,,CUIEditInteger,3|3||1|10000
SquareRoot1,Square Root,,CUIDropDown,Disabled|Enabled
SquareRoot2,Square Root,,CUIDropDown,Disabled|Enabled
SquareRoot3,Square Root,,CUIDropDown,Disabled|Enabled
SquareRoot4,Square Root,,CUIDropDown,Disabled|Enabled
TempUnits1,Temperature Units,,CUIDropDown,|Kelvin|Fahrenheit|Celsius
TempUnits2,Temperature Units,,CUIDropDown,|Kelvin|Fahrenheit|Celsius
TempUnits3,Temperature Units,,CUIDropDown,|Kelvin|Fahrenheit|Celsius
TempUnits4,Temperature Units,,CUIDropDown,|Kelvin|Fahrenheit|Celsius
ProcUnits1,Process Units,,CUIEditString,
ProcUnits2,Process Units,,CUIEditString,
ProcUnits3,Process Units,,CUIEditString,
ProcUnits4,Process Units,,CUIEditString,
ProcMin1,Process at 0%,,CUIInputProcess,L1
ProcMin2,Process at 0%,,CUIInputProcess,L2
ProcMin3,Process at 0%,,CUIInputProcess,L3
ProcMin4,Process at 0%,,CUIInputProcess,L4
ProcMax1,Process at 100%,,CUIInputProcess,L1
ProcMax2,Process at 100%,,CUIInputProcess,L2
ProcMax3,Process at 100%,,CUIInputProcess,L3
ProcMax4,Process at 100%,,CUIInputProcess,L4
ProcDP1,Process DPs,Decimal Places,CUIEditInteger,1|0||0|4
ProcDP2,Process DPs,Decimal Places,CUIEditInteger,1|0||0|4
ProcDP3,Process DPs,Decimal Places,CUIEditInteger,1|0||0|4
ProcDP4,Process DPs,Decimal Places,CUIEditInteger,1|0||0|4
-FRENCH
Tag,Name,Local,Class,Format
InputType1,Input Type,,CUIDropDown,|Process 0-10V|Process 0-50mV|Process 0-20mA|Process 4-20mA|RTD|Thermocouple
InputType2,Input Type,,CUIDropDown,|Process 0-10V|Process 0-50mV|Process 0-20mA|Process 4-20mA|RTD|Thermocouple
InputType3,Input Type,,CUIDropDown,|Process 0-10V|Process 0-50mV|Process 0-20mA|Process 4-20mA|RTD|Thermocouple
InputType4,Input Type,,CUIDropDown,|Process 0-10V|Process 0-50mV|Process 0-20mA|Process 4-20mA|RTD|Thermocouple
InputTC1,TC / RTD,,CUIDropDown,|Type-B|Type-C|Type-E|Type-J|Type-K|Type-N|Type-R|Type-S|Type-T|RTD-385|RTD-392|RTD-672
InputTC2,TC / RTD,,CUIDropDown,|Type-B|Type-C|Type-E|Type-J|Type-K|Type-N|Type-R|Type-S|Type-T|RTD-385|RTD-392|RTD-672
InputTC3,TC / RTD,,CUIDropDown,|Type-B|Type-C|Type-E|Type-J|Type-K|Type-N|Type-R|Type-S|Type-T|RTD-385|RTD-392|RTD-672
InputTC4,TC / RTD,,CUIDropDown,|Type-B|Type-C|Type-E|Type-J|Type-K|Type-N|Type-R|Type-S|Type-T|RTD-385|RTD-392|RTD-672
InputFilter1,Input Filter,,CUIEditInteger,3|1|secs|0|600
InputFilter2,Input Filter,,CUIEditInteger,3|1|secs|0|600
InputFilter3,Input Filter,,CUIEditInteger,3|1|secs|0|600
InputFilter4,Input Filter,,CUIEditInteger,3|1|secs|0|600
InputOffset1,Offset,,CUIInputProcess,O1
InputOffset2,Offset,,CUIInputProcess,O2
InputOffset3,Offset,,CUIInputProcess,O3
InputOffset4,Offset,,CUIInputProcess,O4
InputSlope1,Slope,,CUIEditInteger,3|3||1|10000
InputSlope2,Slope,,CUIEditInteger,3|3||1|10000
InputSlope3,Slope,,CUIEditInteger,3|3||1|10000
InputSlope4,Slope,,CUIEditInteger,3|3||1|10000
SquareRoot1,Square Root,,CUIDropDown,Disabled|Enabled
SquareRoot2,Square Root,,CUIDropDown,Disabled|Enabled
SquareRoot3,Square Root,,CUIDropDown,Disabled|Enabled
SquareRoot4,Square Root,,CUIDropDown,Disabled|Enabled
TempUnits1,Temperature Units,,CUIDropDown,|Kelvin|Fahrenheit|Celsius
TempUnits2,Temperature Units,,CUIDropDown,|Kelvin|Fahrenheit|Celsius
TempUnits3,Temperature Units,,CUIDropDown,|Kelvin|Fahrenheit|Celsius
TempUnits4,Temperature Units,,CUIDropDown,|Kelvin|Fahrenheit|Celsius
ProcUnits1,Process Units,,CUIEditString,
ProcUnits2,Process Units,,CUIEditString,
ProcUnits3,Process Units,,CUIEditString,
ProcUnits4,Process Units,,CUIEditString,
ProcMin1,Process at 0%,,CUIInputProcess,L1
ProcMin2,Process at 0%,,CUIInputProcess,L2
ProcMin3,Process at 0%,,CUIInputProcess,L3
ProcMin4,Process at 0%,,CUIInputProcess,L4
ProcMax1,Process at 100%,,CUIInputProcess,L1
ProcMax2,Process at 100%,,CUIInputProcess,L2
ProcMax3,Process at 100%,,CUIInputProcess,L3
ProcMax4,Process at 100%,,CUIInputProcess,L4
ProcDP1,Process DPs,Decimal Places,CUIEditInteger,1|0||0|4
ProcDP2,Process DPs,Decimal Places,CUIEditInteger,1|0||0|4
ProcDP3,Process DPs,Decimal Places,CUIEditInteger,1|0||0|4
ProcDP4,Process DPs,Decimal Places,CUIEditInteger,1|0||0|4