  0 = ad.png
  1 = ae.png
  2 = af.png
  3 = ag.png
  4 = ai.png
  5 = al.png
  6 = am.png
  7 = an.png
  8 = ao.png
  9 = ar.png
 10 = as.png
 11 = at.png
 12 = au.png
 13 = aw.png
 14 = ax.png
 15 = az.png
 16 = ba.png
 17 = bb.png
 18 = bd.png
 19 = be.png
 20 = bf.png
 21 = bg.png
 22 = bh.png
 23 = bi.png
 24 = bj.png
 25 = bm.png
 26 = bn.png
 27 = bo.png
 28 = br.png
 29 = bs.png
 30 = bt.png
 31 = bv.png
 32 = bw.png
 33 = by.png
 34 = bz.png
 35 = ca.png
 36 = catalonia.png
 37 = cc.png
 38 = cd.png
 39 = cf.png
 40 = cg.png
 41 = ch.png
 42 = ci.png
 43 = ck.png
 44 = cl.png
 45 = cm.png
 46 = cn.png
 47 = co.png
 48 = cr.png
 49 = cs.png
 50 = cu.png
 51 = cv.png
 52 = cx.png
 53 = cy.png
 54 = cz.png
 55 = de.png
 56 = dj.png
 57 = dk.png
 58 = dm.png
 59 = do.png
 60 = dz.png
 61 = ec.png
 62 = ee.png
 63 = eg.png
 64 = eh.png
 65 = england.png
 66 = er.png
 67 = es.png
 68 = et.png
 69 = europeanunion.png
 70 = fam.png
 71 = fi.png
 72 = fj.png
 73 = fk.png
 74 = fm.png
 75 = fo.png
 76 = fr.png
 77 = ga.png
 78 = gb.png
 79 = gd.png
 80 = ge.png
 81 = generic.png
 82 = gf.png
 83 = gh.png
 84 = gi.png
 85 = gl.png
 86 = gm.png
 87 = gn.png
 88 = gp.png
 89 = gq.png
 90 = gr.png
 91 = gs.png
 92 = gt.png
 93 = gu.png
 94 = gw.png
 95 = gy.png
 96 = hk.png
 97 = hm.png
 98 = hn.png
 99 = hr.png
100 = ht.png
101 = hu.png
102 = id.png
103 = ie.png
104 = il.png
105 = in.png
106 = io.png
107 = iq.png
108 = ir.png
109 = is.png
110 = it.png
111 = jm.png
112 = jo.png
113 = jp.png
114 = ke.png
115 = kg.png
116 = kh.png
117 = ki.png
118 = km.png
119 = kn.png
120 = kp.png
121 = kr.png
122 = kw.png
123 = ky.png
124 = kz.png
125 = la.png
126 = lb.png
127 = lc.png
128 = li.png
129 = lk.png
130 = lr.png
131 = ls.png
132 = lt.png
133 = lu.png
134 = lv.png
135 = ly.png
136 = ma.png
137 = mc.png
138 = md.png
139 = me.png
140 = mg.png
141 = mh.png
142 = mk.png
143 = ml.png
144 = mm.png
145 = mn.png
146 = mo.png
147 = mp.png
148 = mq.png
149 = mr.png
150 = ms.png
151 = mt.png
152 = mu.png
153 = mv.png
154 = mw.png
155 = mx.png
156 = my.png
157 = mz.png
158 = na.png
159 = nc.png
160 = ne.png
161 = nf.png
162 = ng.png
163 = ni.png
164 = nl.png
165 = no.png
166 = np.png
167 = nr.png
168 = nu.png
169 = nz.png
170 = om.png
171 = pa.png
172 = pe.png
173 = pf.png
174 = pg.png
175 = ph.png
176 = pk.png
177 = pl.png
178 = pm.png
179 = pn.png
180 = pr.png
181 = ps.png
182 = pt.png
183 = pw.png
184 = py.png
185 = qa.png
186 = re.png
187 = ro.png
188 = rs.png
189 = ru.png
190 = rw.png
191 = sa.png
192 = sb.png
193 = sc.png
194 = scotland.png
195 = sd.png
196 = se.png
197 = sg.png
198 = sh.png
199 = si.png
200 = sj.png
201 = sk.png
202 = sl.png
203 = sm.png
204 = sn.png
205 = so.png
206 = sr.png
207 = st.png
208 = sv.png
209 = sy.png
210 = sz.png
211 = tc.png
212 = td.png
213 = tf.png
214 = tg.png
215 = th.png
216 = tj.png
217 = tk.png
218 = tl.png
219 = tm.png
220 = tn.png
221 = to.png
222 = tr.png
223 = tt.png
224 = tv.png
225 = tw.png
226 = tz.png
227 = ua.png
228 = ug.png
229 = um.png
230 = us.png
231 = uy.png
232 = uz.png
233 = va.png
234 = vc.png
235 = ve.png
236 = vg.png
237 = vi.png
238 = vn.png
239 = vu.png
240 = wales.png
241 = wf.png
242 = ws.png
243 = ye.png
244 = yt.png
245 = za.png
246 = zm.png
247 = zw.png
